{
    "hashes": {
        ".bowerrc": "4c96b07cd5123913c8299bac758d228e4add547f6f76aa2a1f745f35c5ea642246fbe42e47011c576a779d5398c33fb689137febc4c040459a39a3bef2fd165f",
        "appinfo\/app.php": "2e072e58a2c4541e6a2e44b7245ef0cc6bdf86305f8566be9750aa74fbc87a92735b5af85763463bcff475b153e69bae138478855ca3e64b73c664abfc5d56c6",
        "appinfo\/info.xml": "3990cbed2c947965b16c8c8eddf8ff2ac37cf69873741ed8c0a2b4f6f6356a9105a180ca2c513023239f3b7c1cd48c1015134da48f84d6ca4311172a40faa6d2",
        "appinfo\/routes.php": "f63cea1f43a6ba4cb06449e033eaed01164645ec8052099761390a685268e9b09c08449b55360263b75f9349506b84159d3344237dcd5588502859134a796b60",
        "composer\/autoload.php": "13443d6086174c1c854859365d15431cbfc98308fc329da0d1099c482958fe55bb5896d219a68bffe6065d951d233159e71ef02a84a554d0fcbc7800df04b559",
        "composer\/composer.json": "756c10a6d8a75c7c45306a4957906e32635ff25b175027289bc6042fb107b889de72d797dc5de528ebfaf5c8e6c2c156e43a050a5a9426d81b739183a7077daa",
        "composer\/composer\/ClassLoader.php": "6d630ae5c62bd43ae490e02b0e1eab6f9a4b92364b617e0dbb4404ff11bc33db238568dcc3df9d8de616f191109853bf9d9a408030f1252fa7e420e5321227af",
        "composer\/composer\/LICENSE": "f3bb64009f41a425df5a9bbab53490f0eb9b74fa8d6aaa2f57efb928edc4ffff330260666edeaa04a91fed708c3663371cf01b284f3a08d6698aaef7a23f355a",
        "composer\/composer\/autoload_classmap.php": "2245374caf92d1a7b645b8b39421249af66b135bd58d261f005454a476c1c53029633dffa83f444a37ad4783f370a9a37e288dac3160d884229f7644a87ef794",
        "composer\/composer\/autoload_namespaces.php": "dd8ee31d2faa9014fe567e1f954b5e7f450cf06feacbb96d4df663c59b1a36a0b7d26ad41b46354bd14f282fa7899298137208d1851099cd3ada285650efd90f",
        "composer\/composer\/autoload_psr4.php": "58e50b5bb7c8ac14d5aeef4fabf8bb8c34ad9a629d84dd4a4b1719844b372520fc5e534363053d52381e78a420a751dcac30d2bde16787563f6df92a9d79c627",
        "composer\/composer\/autoload_real.php": "d2f667722ae7e94c5f07ed67b78a737f9e89c2c54b31032a1d209887c425045138b4c60995b041e9def6469fefff6ceef61b5591ad6c7eb0b2228de7b8c16ac7",
        "composer\/composer\/autoload_static.php": "e97c36bdf2d3ab097d72d29c4c86a1b814a9113cab26bed47da414940a704799323924bfae69a3eff3961976072e2e7531478b7c0f5a2cec814206c9a0f47890",
        "img\/comments-dark.svg": "c4c52d2d7a94b27e835d44c53728c107fb071a649e3ed5956a68d6ae690574494b5f7384032868ef1d7d3e0a8de7a7a0219e2ec7c982a8cdc45f133a816c7db2",
        "img\/comments.svg": "f9cc9d8830580e4b9d8f63ac8976eb1dafb99b42e5cb4d4aba252c755be3f9f4a8f205e0edcae616fad51f2a6769194e83025a89847a9498dfa1603a67b1fecb",
        "js\/comments.js": "2c27cce6769baeaf5f415b0ecbf5fbaa08011b83de406c444e5b321c656ce068a87037d81fe74a06c7ca4c1374dac7d02f573ad503964773fef0162e0a1fea96",
        "js\/comments.js.map": "fb521043ca18f225609889c813c01ff42d9d35d7146bfd8abb1c4434648195921f39089afa52966e73f15829a810cbac3995bd72f4402aface36444cfca2d54f",
        "l10n\/af.js": "a854f8f8c8d651d6c759f19d6366225a3f311d950769dcebcd32dec81158e8ed1c4bf40c52accc8cea3b7797a2c37b3ad83d89597043a0ede42764d30c37d58c",
        "l10n\/af.json": "50dc5ca91ee3dcaba2afe2b9d38db4a8e4a27893cc0346dd02d0d9cf9726ac4cba53939dba05db8ff6e4d32748fe7ba20076cc195ea342be59cb68a3bcb4ebe4",
        "l10n\/af_ZA.js": "5e1d0cbf42ccdbff4bc00dbb284dee005d961edeec6a3a10b5570b9485690d08e2901ba0a9748df9fecc98be6a683a8ee944c4b02e8d94d8df1e0eb31bbfb20e",
        "l10n\/af_ZA.json": "9f4cef5d6d086f17815c6fabe4d2ba6df7244c06f72862010ff3a2d1860cee4606bb497b51bb1939d742f9bef9322169e9eb9a9aee52b961c9a946d1da822195",
        "l10n\/ar.js": "911f7c62fcce779639559b1d4acb8dde3e5781d423e584a795e93a2ef7a573e5bd5074c61bc6846e1b3ea7d45b225dea638ef8621eba3cdade16226aed8f9d1f",
        "l10n\/ar.json": "cffafb17af2efa19f14709625aefbeb8b8ccc6c3062b666946979493bf87dd1d988999b1b99fc35344c36727a2e1a84159c8c380581fc944a51ff2abe60a06ce",
        "l10n\/ast.js": "df85a6ea940919eb0695724bdf361319c3de96b8b92a8726377642a4673966244c6bc831c1ec96b502c6986b4da17da333906debfb7db7d21e88291fb347460b",
        "l10n\/ast.json": "b1ea085ae84f3871bcc62cf76579fe0e1b29ea53e47712f1dab0c212c1e42a64b72ec08d00e58c4e0370605f466477b4b0be5dd5926644eb9d08a32ca9e1f98a",
        "l10n\/az.js": "5df32fe0584ffb7419b78a0568da32072a75466b4ec3ea1b56f6ef0ebd53db25594b38d046b1bafdf18ac5c54e95d3194ec2a16eba2c885a33bf6ea40b356aca",
        "l10n\/az.json": "9b980bd3f20a51c224063d01e416bf911d242f60e5a7ed5f618830984741eef8e7924a05ec5e4a842a822bd951c1343bc20f6a63031922d1de96a9ec2d0cdcb4",
        "l10n\/bg.js": "157689b0e873c0ddaa8b40c5d8e9a8cdf38e6543aeac6be80639553253bb4b36e1b1ead4022bab100fdb2ba8419210f45e8f90fa8501478dbe0c4f990f7b14f3",
        "l10n\/bg.json": "469f930e6ad7d9cf1f7b0c57654c92e255c963205f43ce7400fc9b329b72707b34b4542d31a1afd2b4678f03c91952431239c54ba9dd0495f1bc28945beb348d",
        "l10n\/bg_BG.js": "29ebd8538638a0b4a7150640fb9b8f76bcb4d87d8ac871facf787f33ca3a87f348902634f3f61bb1954b6451d6127bb3809e21f7b73e96c57bcd4e7788fedc8b",
        "l10n\/bg_BG.json": "fc542279950002544192335fb663da082495540596221c3602199e2b940643ad4c092c66c19b430a62bc9740de49f663404c6ebae635e29aa2d8f05f02316494",
        "l10n\/bn_BD.js": "c43e3a12ce1181988d2c90b89adb829a5f2d46b3c403ade8f9051d8edad644884ce5aa50662f226fffc3ed6bb2be17c6adde9dd8f2d09863601d768b8e71afbe",
        "l10n\/bn_BD.json": "cc2593db77e2a3ead089aae70a33cc4720a30f56f888b409ec52b48986cfd2e80024ea7e724c9d1f75c122c46d49268a25a309139584c7304eea678cce5866f8",
        "l10n\/bn_IN.js": "a693ed73bb04a078d1cc6b18fd17cfda68d9819b9aa3583e796ac734f39b34a0b1c00db719301f6759666491100200164f2a16c568fb3c357bd651b7f327043c",
        "l10n\/bn_IN.json": "08aa39a26c1a3f703adddfe1371d70abca1afaac0c2d9521ea48b0b280344357513a0ea73c0f0a2670e4d1447d3fc7f8acc7c33bcb619bcacc8cbd63090d3134",
        "l10n\/bs.js": "a42f116af44b0c1aa1a2fd05e487d3b99d4edebc92a5c569895f1c31f64ab02914538c348773a34cbf4dd4d982d31f4f8fa7bfaf6e9d34763d6fb2401a7a026d",
        "l10n\/bs.json": "8328be6e6d3faad4ca4bfcefa2950ddf56148f15ba69a0a1a4c004048e9fb05013933c47ea4e5d67c74e9c9c73c161da3933f8bb553e429c361544a907575b5a",
        "l10n\/ca.js": "d5e6cf823dee2d4a4bf41d81283c9874c794a4d986648ed90099f6f8af1fb2fd0d3e9edea2fb7f55230c24cbb053142197c2bce23af9bdc587ee099c9f7de7d8",
        "l10n\/ca.json": "eb50e613f523ba60040d88fc844dd3da72091fb8703948aa9f209f7869fe0380cec5d3c7e6ffe2c3ad7e3374d3fdeb80cd01c32fd6f0f7aa146ecb7ffef4fb96",
        "l10n\/cs.js": "57daeff7e398a5fd36c2be450c579023b214b42c49e9e0595b59142c8dbe8aab9fe786eb76379f4ce5ef1ab235d9dccc5eda265343c7f2299376ecd3175a7532",
        "l10n\/cs.json": "bebed64f865c08e33f74e52dde6d5c28331e8d99eb42710a756169393c6fcafbc720f046266330bd0cbc57a18c9032a2c915e152ac11aca657d72e4978464d17",
        "l10n\/cs_CZ.js": "bd77ec99316960bb7180f331a00eb670dc02a8d1293f49129dceaed62a604f3c2fd5cd53c1c85c6774dd4bc385519742a8fe68a788f9578e1386d0e2f093daa0",
        "l10n\/cs_CZ.json": "092773f51644ea5a50ad9594a8d3f392bd5d4c9b9db2c632d59ad33430270dd6a64f44df70f1382c9356728b87f861f4affb06a1cb5616a5c2b2cfaca02b800e",
        "l10n\/cy_GB.js": "5d9e2fc99e8a2a3498100cb7cac728e097f829817690355364c8a100b6e5c10ecfd17b2c0a6f0a6d7cff4690a3c3f64c9288c7e700472272d7c582b6f61c8d40",
        "l10n\/cy_GB.json": "6c5b1b52bc41093f7306e9280e88d51ad7f56d42dcba7e969c09e05292154630f5f8f5bdc1d3eda2155aadd1f5ff3f702c940ffe92532c3186385e3acbb4e65c",
        "l10n\/da.js": "0ee775813394eede22d3ae01165275d2a43040725c391ae69304c6f878080b91c2198d831e7415d81305ee0c4d0c15355d67d3b5fca5df82f9bb3919faaf5cf1",
        "l10n\/da.json": "3af5b96ae7ff3cbd9be6f19cb6a967cf5542c917a4a6a2aab732366828331a1f3f9b4eff4b0e886cf8db3052cc5f5fe630096b26126195633d2e5536f5ec7a15",
        "l10n\/de.js": "fa0051de4b3ba359074af771fe0406b7cbb598d05f41c47aa966199f297270639996f8f3463491e3a1079736af699a6c682d3b8041282832d5bf3ba80b4bb007",
        "l10n\/de.json": "d433eac8b995fac9c4cb322b054ddbfb40fe14f8f6aa90087c66946548fb4cfbe450ab63e47da65c2cca21553e0d0cc42b5d9cb43f184405ae217b144d558569",
        "l10n\/de_AT.js": "cb6be5fe623ac04a8bef3f15b1a08dc235c2f76a66242ab706588b9571681437cad11d45ddd10bb5cf81a596915d616739c0512cef91c11e7e69ba0e47bb41fb",
        "l10n\/de_AT.json": "259ea439037c6c2c9c5a5b117de99d1725671f93834c2d0b16a38dc4d193692e4693122440393a124ca268a368965c93c976c9e449c6c89e74b292d02aaab2ee",
        "l10n\/de_DE.js": "aafac0b3d76bd68c5a0e54f775ace3b30d47f658fdb948410daa688bf69b5bc88e8e652db0fdad04c9794208b2992acacbcd4df88e1e80c79075a08966e614b5",
        "l10n\/de_DE.json": "b5486af6ad31d10bdf30dbdc62095b4480635b0afb81144bde11d37761c4c5e46282b660720a48cae23dd86606fe08d3c85e3abe25b97e87d1fe118f1e3a2836",
        "l10n\/el.js": "3b852eda905cc4893427511367e21d76b9515f175238deb2514520deafe5b85b5896cef8af84476e0210422f4adb6b0ff65b2391be2a823b9868c9b3fe28ed2d",
        "l10n\/el.json": "4746e68ce09c69bc4f5c4b5e6e64ab7ff60b5b2995b875a00ae40c348aafed8f6550ea568f1f46d5604ea8566d65c6cb65ab9a83098a3a448bbbeaf6fcce0a55",
        "l10n\/en_GB.js": "263f86cd9c53bcb8abe739b864e364edb4413853e651460577559c472464bc6fec7bf5382cc43581dde50afa1a215820f297c35177350c50f46742b286ffffac",
        "l10n\/en_GB.json": "c629808795f30b9c5fe2409b23ddca1ffb343beaab702c460694d625ac3d82edd147c39b5ee0027f30f609fd68ab1ef9860b3fa9093797504a25de4ea037db0d",
        "l10n\/eo.js": "a43ca283bd360c17eacfdce803949192e6ecaae9563cb5efc15fb72b698ec72b42204378f336b83f7ed36e30a51a16f8c037e4bf85164f2d59d0ff0f33bb38ef",
        "l10n\/eo.json": "9f75fb59caacc9385ac13542395b3ef26329a9769bcc99f05c435744a045b910a10c322f75fae3f0d8b451aae43ba0b747e30e3add3491319c68a364f166d169",
        "l10n\/es.js": "092b9e0c43b671d63f8443c29b407341906fbbf959ae094c9e01445dd118b1edc306594735c0efa2b73a9b041d2045ffbf4c6c252a244eebbc46ccd597b522ae",
        "l10n\/es.json": "cd9f967ea119f5c368a6d56cb8d953950edc2ba8cd7aa85d64da58dd46242587c392d934a66f5fcc996ee114704d37f2f3aa92ec9d6da5387f33715b960ef720",
        "l10n\/es_419.js": "b9aa3627c502d98bb3b004c7d8a5289024b7f1244595e1f04483897e124086f4896fc9cd0e3df10b9b8db46b749c213ba81c86a31435e30aa342504787792788",
        "l10n\/es_419.json": "36c53fceb92b6814fb0d76c88e13e469a6d6308373252a6ffc76653a57a8eff444aceb5fb7e415be068b7563f9615d1631caea7b5d749d7b5388b99e74e69d16",
        "l10n\/es_AR.js": "c9b9c5a1f6be62c92d6ddf8010acf615023951b03e9af32ad542e3c925f23288fdc0686d73fce65ab25ea70d6800a8bb69ced9e3cd1faa83b86eaa960454bcf5",
        "l10n\/es_AR.json": "574edcbc49fe8d463c3a5c3ec94f264aaa4eb21712166b810de96ec021b78de42723f9e19e265d51eaff7ca2b9a9ad2a91024ecd2219ff1e2fb4ca603de5487a",
        "l10n\/es_CL.js": "74a7645d88d79e8f4e6a08c96d6fe90152eee4794e6f0735a488e7a974fe51b4a13c8cc7fc258dc405a39c8d2adf04d69daea24f03341cb128c8b370efba3f74",
        "l10n\/es_CL.json": "82b3b078959f2b88d70074244567dbde16cd3344ef3bec10fd6051523beafaa2d1fb5cfb0eade5d76b8ae0e3d35ffd503d636e7308f582f69fef1d6f45ae5b2b",
        "l10n\/es_CO.js": "74a7645d88d79e8f4e6a08c96d6fe90152eee4794e6f0735a488e7a974fe51b4a13c8cc7fc258dc405a39c8d2adf04d69daea24f03341cb128c8b370efba3f74",
        "l10n\/es_CO.json": "82b3b078959f2b88d70074244567dbde16cd3344ef3bec10fd6051523beafaa2d1fb5cfb0eade5d76b8ae0e3d35ffd503d636e7308f582f69fef1d6f45ae5b2b",
        "l10n\/es_CR.js": "74a7645d88d79e8f4e6a08c96d6fe90152eee4794e6f0735a488e7a974fe51b4a13c8cc7fc258dc405a39c8d2adf04d69daea24f03341cb128c8b370efba3f74",
        "l10n\/es_CR.json": "82b3b078959f2b88d70074244567dbde16cd3344ef3bec10fd6051523beafaa2d1fb5cfb0eade5d76b8ae0e3d35ffd503d636e7308f582f69fef1d6f45ae5b2b",
        "l10n\/es_DO.js": "74a7645d88d79e8f4e6a08c96d6fe90152eee4794e6f0735a488e7a974fe51b4a13c8cc7fc258dc405a39c8d2adf04d69daea24f03341cb128c8b370efba3f74",
        "l10n\/es_DO.json": "82b3b078959f2b88d70074244567dbde16cd3344ef3bec10fd6051523beafaa2d1fb5cfb0eade5d76b8ae0e3d35ffd503d636e7308f582f69fef1d6f45ae5b2b",
        "l10n\/es_EC.js": "74a7645d88d79e8f4e6a08c96d6fe90152eee4794e6f0735a488e7a974fe51b4a13c8cc7fc258dc405a39c8d2adf04d69daea24f03341cb128c8b370efba3f74",
        "l10n\/es_EC.json": "82b3b078959f2b88d70074244567dbde16cd3344ef3bec10fd6051523beafaa2d1fb5cfb0eade5d76b8ae0e3d35ffd503d636e7308f582f69fef1d6f45ae5b2b",
        "l10n\/es_GT.js": "74a7645d88d79e8f4e6a08c96d6fe90152eee4794e6f0735a488e7a974fe51b4a13c8cc7fc258dc405a39c8d2adf04d69daea24f03341cb128c8b370efba3f74",
        "l10n\/es_GT.json": "82b3b078959f2b88d70074244567dbde16cd3344ef3bec10fd6051523beafaa2d1fb5cfb0eade5d76b8ae0e3d35ffd503d636e7308f582f69fef1d6f45ae5b2b",
        "l10n\/es_HN.js": "b9aa3627c502d98bb3b004c7d8a5289024b7f1244595e1f04483897e124086f4896fc9cd0e3df10b9b8db46b749c213ba81c86a31435e30aa342504787792788",
        "l10n\/es_HN.json": "36c53fceb92b6814fb0d76c88e13e469a6d6308373252a6ffc76653a57a8eff444aceb5fb7e415be068b7563f9615d1631caea7b5d749d7b5388b99e74e69d16",
        "l10n\/es_MX.js": "6c0cd769fd1a885d4b5c93413a4837f2235a3efb08fc2cf1904d035120351c26dc8306b3a9ca7928da9c14b974e6a408c2c91064e8be288b01f81dea81686236",
        "l10n\/es_MX.json": "23d5bed1e9ce0f35da1a0f66ee25cd087d02d6a4aa619c2abd360eb83076a14610d7fc6132ad094aed8ced1f616c197a1de0abf1f62801653f6538f9adc010fd",
        "l10n\/es_NI.js": "b9aa3627c502d98bb3b004c7d8a5289024b7f1244595e1f04483897e124086f4896fc9cd0e3df10b9b8db46b749c213ba81c86a31435e30aa342504787792788",
        "l10n\/es_NI.json": "36c53fceb92b6814fb0d76c88e13e469a6d6308373252a6ffc76653a57a8eff444aceb5fb7e415be068b7563f9615d1631caea7b5d749d7b5388b99e74e69d16",
        "l10n\/es_PA.js": "b9aa3627c502d98bb3b004c7d8a5289024b7f1244595e1f04483897e124086f4896fc9cd0e3df10b9b8db46b749c213ba81c86a31435e30aa342504787792788",
        "l10n\/es_PA.json": "36c53fceb92b6814fb0d76c88e13e469a6d6308373252a6ffc76653a57a8eff444aceb5fb7e415be068b7563f9615d1631caea7b5d749d7b5388b99e74e69d16",
        "l10n\/es_PE.js": "b9aa3627c502d98bb3b004c7d8a5289024b7f1244595e1f04483897e124086f4896fc9cd0e3df10b9b8db46b749c213ba81c86a31435e30aa342504787792788",
        "l10n\/es_PE.json": "36c53fceb92b6814fb0d76c88e13e469a6d6308373252a6ffc76653a57a8eff444aceb5fb7e415be068b7563f9615d1631caea7b5d749d7b5388b99e74e69d16",
        "l10n\/es_PR.js": "b9aa3627c502d98bb3b004c7d8a5289024b7f1244595e1f04483897e124086f4896fc9cd0e3df10b9b8db46b749c213ba81c86a31435e30aa342504787792788",
        "l10n\/es_PR.json": "36c53fceb92b6814fb0d76c88e13e469a6d6308373252a6ffc76653a57a8eff444aceb5fb7e415be068b7563f9615d1631caea7b5d749d7b5388b99e74e69d16",
        "l10n\/es_PY.js": "b9aa3627c502d98bb3b004c7d8a5289024b7f1244595e1f04483897e124086f4896fc9cd0e3df10b9b8db46b749c213ba81c86a31435e30aa342504787792788",
        "l10n\/es_PY.json": "36c53fceb92b6814fb0d76c88e13e469a6d6308373252a6ffc76653a57a8eff444aceb5fb7e415be068b7563f9615d1631caea7b5d749d7b5388b99e74e69d16",
        "l10n\/es_SV.js": "74a7645d88d79e8f4e6a08c96d6fe90152eee4794e6f0735a488e7a974fe51b4a13c8cc7fc258dc405a39c8d2adf04d69daea24f03341cb128c8b370efba3f74",
        "l10n\/es_SV.json": "82b3b078959f2b88d70074244567dbde16cd3344ef3bec10fd6051523beafaa2d1fb5cfb0eade5d76b8ae0e3d35ffd503d636e7308f582f69fef1d6f45ae5b2b",
        "l10n\/es_UY.js": "b9aa3627c502d98bb3b004c7d8a5289024b7f1244595e1f04483897e124086f4896fc9cd0e3df10b9b8db46b749c213ba81c86a31435e30aa342504787792788",
        "l10n\/es_UY.json": "36c53fceb92b6814fb0d76c88e13e469a6d6308373252a6ffc76653a57a8eff444aceb5fb7e415be068b7563f9615d1631caea7b5d749d7b5388b99e74e69d16",
        "l10n\/et_EE.js": "2fa17f4dd33696f015a86ccca1410cc839cdc303e4fc3dd0b607e4b08eb24fd2917184a1814b813d9f95a88a39c01bbf0ae536bcedb85d537f70368be250fc92",
        "l10n\/et_EE.json": "ec4dd421e014913cad18e5d9b9eda3ab952db95153897aed49c4d615b0b1592882ca3469618fb3bd50d4a369fc5f4fa9a8438b824aa06528efd393a458642e67",
        "l10n\/eu.js": "1bcd64b6cc0e5a9d93adacfa0655a4e8b9c00fa749391a1b3b62fdac143163e92b9f626fbbfff7a0492a3708ece025d2193bde54d0f2eaa12b0f34ec75d0d703",
        "l10n\/eu.json": "cf85d37b18a87d6eec43cfbfb219cac19d0de68f89ede51104a84697f5a3b2b812897f04dcadcbeaf4a675c4bca5f004f031097216ac83f4a46e3f25a2543c69",
        "l10n\/fa.js": "1b9db96579d2d4766ab8cb1eae5216a2a3bb52f3c89c897a1443682e46e3f0d091feaeb51180c1ca6971e4c05cc4bce5cf4af7b9f766b17da2283e01c452f8f9",
        "l10n\/fa.json": "09dfc93b1cf6ab4a67890ca44af3561fe2a536f6b395058d20ff86b14e11761b0ab9c4af7c4afff5b85be6f25a534bda0f87fa86ee5c647e9e452d3d7a63f6cc",
        "l10n\/fi.js": "c45bd1494df7f22f744084acbd07b022cd060149941adac180bea24d09d921f013fe43d8d777acd573378415f7ba07d2060c1a755c531ac5aae47c87873c00c6",
        "l10n\/fi.json": "cfa0e3ac9a5511fd711bfa537888537e9b985fed431cc2e05b654c8cb73c46a46b9b2d68f2eebb691085f2bb08bb08dd73323b3e5dfa14bc4fdd3c14da778e75",
        "l10n\/fi_FI.js": "e42d2f6df0940059c41a5622947f668761db76b337795571c50ef9c671b921dda4fbe45e4194b3454149f4641614da6ed898820ce1d454e22d910d967ad7d179",
        "l10n\/fi_FI.json": "d038e0b9821a269c47d20c762bc125f49193b139510132f3552239f4ec1d4d84ae260a3cf5a316ca17f463e633f8f99ca9058e0424a040058c5af2fe555b5818",
        "l10n\/fil.js": "36e69aa34df6a81534b827a4712505c8d1f27df64aa1f94c0bb46bffa59878253b14297466ebb7b4f9543a403f18eb4def1e700e8d1730522a0cf3909ab9e5a3",
        "l10n\/fil.json": "0497698dc1a5ea77db93e84ce2ca9dc170d9e55ae777976807d7ba59c8b3ebb793c8dfb6fbf5ef2e8ed3508d024478baa2c7ef2b05074d22fe4f834545fa0ec2",
        "l10n\/fr.js": "d042e75a451264e7a35476a8f67bf29f3ab6902b685e9936687997d42452ac20dc99e0516732a3697355f90caa6015924a7fa359e91589a0e217fd0bb28ae8fa",
        "l10n\/fr.json": "ffe5411702f7879ef18074df3db4e7137e0f3fa506c55068668e52060fd4a84eceec9e9c2845487f2070db60edc0d03d8db7e857b279cf8fffaafb2d1877933c",
        "l10n\/gl.js": "628a77ab799ecbebab6cc89bbca53fc9a2ad1fb0ebe841657fc1de684966451be8b60517231917dfad2cec8f8c0f9188f92152d582de3c869f4259c4d957b17d",
        "l10n\/gl.json": "d11310ce94a8454aa6bb29d8372842ea702ed4e480bf11b8c7626f20e2988752cf97b230ed43631f0f87754a8a91737d9666e73a20e91e1dd8f6898d958c262a",
        "l10n\/he.js": "ab4cd5dc1b6ed6220b4e07ae5351251cd862c7383aaab7514a9e9a3f4fae83137f16deb6994d69e6a98f96ea443882a2d80d1a19e47c9d60b164777e8e24784b",
        "l10n\/he.json": "06cd51a5d80a29d7a3c2cf61a31370ed1f6130484c01fc9d91563e6c49ddc784dea9229b31d5917976846911cf0390a2462530c4b82ff65dd035b038c6b14f39",
        "l10n\/hi.js": "1e6b018842b694bd4412d2ef8251740b023628d4c400477eb8a53d28e1576be38e52c43377a0768b8bbc0f910b2e56298a3f9158e6d92e214e52a78452872fae",
        "l10n\/hi.json": "ac8c88a80973e9f366485c64ac86384bf9ab4316491a7e8123f6b2079021989dd2f0aba131bb91ef86cd3d0a996be0ac907f7d51ee9add2007740474b8cd98c6",
        "l10n\/hr.js": "7ac658ae09f897c2a7f35b7b17e44b48531986fca2424d74d0993a0f0f3594ef4a16f4f07ddc7f730f54e46b113a42fa5ad35029027e0a50154729305be61f17",
        "l10n\/hr.json": "40c0ef06dde0248ccb44536d2d610ba457c6234f9a72f241080355f4ba205f753f55d95d9449160c609dd46d1d483871d5c8135fb1bee2bf3d9f1db262b214da",
        "l10n\/hu.js": "bc8fc2fd0d272285ff164dd1947ba887770220686ae4cf2559fd170d6de007f78d1f476e22463e30e3daa19ed01e545dcaf362f6296c4a74b98af492027ad50d",
        "l10n\/hu.json": "874f770047edd2e40ef38b1cc21691247fde2d2475add1cca89198d47c2c4dcb63688f2db65bcca3e07948c18922f425902e3a3d8b2bd46dc870d9166bb8eb9a",
        "l10n\/hu_HU.js": "387e03ffbbf2ee2e5e45c31278db79dc6a56e24254e3b8f898fdc9fe10264cda425a2b83cdc7f04c4ea027d0dffbacc4e196b435890ed1e6b18b57a32e88b512",
        "l10n\/hu_HU.json": "623be151ef3a2b65aac14b601553e70247deee082c0c1fafc8d40f92a3b6fec016fa3a4b15eebe01aa499bcee87d4cf3b499b2d181194340ddcda2bc22638ad3",
        "l10n\/hy.js": "facf9ad44209da8776b81e4378c923ec89c64b44fe3cc2a505cafee3af7b3b3ea0ce00421dba24a45344a681f7683f9e6a73918ce7f1e72a6f433346c9b4b820",
        "l10n\/hy.json": "4dd200dd7ef7366071c42b7f9d09ffe7f2c242333c8522eed5a11b2303d8ab1d43b0927c5db9951339f964fe8a65dfbbba27d4bd505104d4228934f5033c0441",
        "l10n\/ia.js": "2e4d7bdbfd8adf6bd3f633a74d6cc2ec8da8afec25f4b2731597a62abae24bf3e279affb7b22f7e66b76fa41f54dc89466eda56cb61e948a04f8dbb8606caf12",
        "l10n\/ia.json": "3cae9281882305be3c1ac21d1d00db11a796d7e8cb29313fdb23ab84e2c51d503702c5e157dcf34fcff29c7c94c7d8ab48395f2f67e018e5cbdc5d0237ee6818",
        "l10n\/id.js": "d960951f50b353320de35857394e84ef64f8433fb1797c3967877d566407b853025def786804ad7f310c2f21f3d525f7f8dadd82b72ae8557c2b402065e1d9c1",
        "l10n\/id.json": "ac0838eedbae8fe7f133f28a40b71567c3b6d70d287b88eeb706bfa8079e170049e698b82badd45dda459c556ae26fe940255427d5e54451f67e3d600291ff77",
        "l10n\/is.js": "e300bda3463765ba908999e20304365cb7b50b20f66209a210a8422e01fd0ca5a1deafecffa2792beab2c99b0aa9d1c900a52cea42e3e1c78afebe2e0691d8f6",
        "l10n\/is.json": "edde4767c5d165f80e7f26489e196124ef617073baba7380eb563f2c51ab9b8ca0852128d4e08d4d193100737e5a006bef87b937e58aba35c0f1335e63b53e34",
        "l10n\/it.js": "827452a9f180677044306e97a4741122a1d4236d8d1b58fe2366e497778813d02b7e5e3b073eb23ec67912be75b291ea36dacc6b7e1c3e025e45c89188892cd3",
        "l10n\/it.json": "bf1ed5a63c5f261705ebf1d583e8bbd30a7443fcaaeda686ca59d81c60003e1f62b31a0e8a712e2057cf56980ba20e0792bd4fc0b7fc2059e0dba4ec77fea1cd",
        "l10n\/ja.js": "0bcd33d8e81dfb00b80d1dbe0cce17fba1cd68853529c97599e6fb3a5d82f2673ee45998a4f89a8b502a69038c233193b9109635668bcc92a5d71408289e8a27",
        "l10n\/ja.json": "32533618ff51b4926200f7321b3e700e567a22f6b706e421874fc13dcc7f3c945f74876cba5b2bea3d5d72cd0af869249098dbd1163ccb3612be2f344973f261",
        "l10n\/ka_GE.js": "9bf857d9605a3e14feb7164b429c1560e0034152a852cb9820edb318e2f14295b53da8629e3e084c928abb0210029c83b42c82c5be4f006fadbb02dbd53232a3",
        "l10n\/ka_GE.json": "3d472addab5baf30438d6eabb69bd5b56a2050a52e875b52a4890b976429c667c6f27ba72ae6544c01500c74fa58b45afed20d6bb57867e811ce647f2dd8d17f",
        "l10n\/km.js": "e239e75a6adc57c5762ca70a9ff85df0de4b3fd8a19ebfff4f62b49b449af23203b4eadd530c3bda435ed734c132028e84c1d7962587a9c540b0274d43398cd3",
        "l10n\/km.json": "6e429b486a706b020f7de51f850c0d5d93d97093ba400b4f293ac22bb510e85f785a2ed949639a13d7a37ffdbed122224d6ac9aa515959c81adae2f5b86c35aa",
        "l10n\/kn.js": "13ef334b7c71d663d35c16c94632f75066320f321495ff793374e2df45bc8c45bf694aab938587abcf68877d394e0b5e59931eae8b2391c6ab4d1c97e1c05512",
        "l10n\/kn.json": "59927bf497c06b8dab87208ac365900eb9db69aebd69a0f3c64a8a6169789777b8b5ac3a6f1775b03a1de583208d760b7a67df4827948b13e0739913cbe1d4ea",
        "l10n\/ko.js": "cfd51c3b5f6e0a054f9d96b3a3e681c9a346cbfb453fc88414bb8ba8bc07cc6ddcce528a567bb01dbab179a70c9dca6d82bae2b90c93b94464432010ef94ccad",
        "l10n\/ko.json": "d611089dd934636cfc29028c37bff55c5eb09d3576cad2e7f901fecf2f0cc16e66b2e800edbd37d4411fb276070a0522f36a37f37477952a010eb434f67bf367",
        "l10n\/ku_IQ.js": "ee4ac5bc9f878efa11c1115de007c38c0b67caae09c83d9a0e29b72b81a2238711919b4260b34693561b015247d7e578b02472b8a7b3f390811309a147dbfbaa",
        "l10n\/ku_IQ.json": "d39a69bad7043ed914ae67e9912f32e71bbbcab0f39c536db28acc2d7c8c230e5909e0d5c60222a786d4ba5e48eca9f86299e028639e5c929cfc3e95c2a5bebc",
        "l10n\/lb.js": "ccf78e7f094458e461282952370d6775f582727d10bc67406fcea2a275da610707c332548f9232c1b403e9d550aaf528becaab70efc4b6c929520840b1ec618a",
        "l10n\/lb.json": "615b34820ead4ccf6d7e84b2ecc3b6794ed71659314649d60269b199b7daf7d42475707169a816a036fc79062bda6cb6ca2747b93ce172d027f57e3e4e7785c2",
        "l10n\/lt_LT.js": "8f49ec8863e022c89cf6be2e0aa80a35809ef7f2fc0c50164d6adffabe6eeef3416429b16d2bad0697e08f50d795005e5a901766cfe86a79e088dfecd6c74136",
        "l10n\/lt_LT.json": "d69c6e3d42766f7502a40433e65d74118abf269fd718304b20b895d6e10f38ca6d0af81d778e14c1f0a1806b0169b9696c64b93f90bc44c8f2519a8f72c3a0a3",
        "l10n\/lv.js": "7344412773d96210db5fb8ffbfa43e45414e17492de857c3b25aa78b8f7c0a9a2ef93863275400aaea3a66d6fe2d569151df22244e2af7ad0c415df5e5be1792",
        "l10n\/lv.json": "d4138f1a994dbcc586da59aa8dc40c1bc0cc9e138bfecba5a63fa12340a37f1690db1eb5b21d19c44c0b4d9a02500dcfa2cf3c8754369f5e89bea3f4e5d06329",
        "l10n\/mk.js": "e77f66e5c2deafc8df552bfc11c67c506cdb056a8b2fa816643fef89c5030bfd1b2cd2bab54e8cd91d92aa7d2b3e0c2241f774fb8c6c9d86e1911c323519990a",
        "l10n\/mk.json": "b3bc4c3c127edb61d15499af003a3e94af6b999a0a9b9ea272888055992a360b014c244ccfe46e46669fb0a011efae63da13d7c61c746695f58ee83e701bc25a",
        "l10n\/mn.js": "b98876820c473aa939c137709570737c2480d4b7d9558dbe7a20612aeabd82d1f87f0713efb89850eccd229c2df34578525a932a95753e78462f0e3d72f75797",
        "l10n\/mn.json": "bbaf9bfa439b3122a6bc6d3c0d7c71bcba947b719c7686e9a566b39547ac08193a7459e5aaea6532fc0bf91acd8d449440fbc9e3bf9905b4518dcb26256a605e",
        "l10n\/ms_MY.js": "443a7d1dd0340152aac16ecb2bc3c1099cc2faf2c25262a7665bb75dfbd055bd7799994ebba2f02463de77fa50e1c0349c99367c9cb452eb2f163344bd5fd500",
        "l10n\/ms_MY.json": "2d25765c7c51ec2ca8e0479202ab9424a1921a414950d363017745dac2a2d4198d916a39466b5217f4ec1730ff302e4bfe80ce569ba12d86ba43e0416d802c9b",
        "l10n\/my_MM.js": "fe65ddf5d92aca3e6df7d0fb0243bad145f180ac6d3f26affb822e132e0b176be263dd8d35780cb9421c7ff2fc67530ec6008a7762dffb38b896042c5ceb0bab",
        "l10n\/my_MM.json": "4b2b25f9ffaf0dd872077df78f6c237f4cffde7b05d8bed634009b3bc9fa65125fd04aab6f40372ab8e8e028b30ef6e51ff319734f23e38c6a9bd5168e2a28c4",
        "l10n\/nb.js": "bb907f7f05dc0d0c124a6b1553acffc38c60c9e1321d3308aa2c426506beedf6d30aad3d6d3f831a9e6ead19cab90208b6c9ee02f405d98fd1e5efe7ede0189b",
        "l10n\/nb.json": "9bc632ebc89904ed5d57c595a3982c5a31c632231a69ff13f5623d81ecbd78d4a3708d385cf7fbb28f1d7244567a5acf44d391f2997241da9dce20551e804377",
        "l10n\/nb_NO.js": "336ae69cd4ef3fae030a567d8af3afd300352e10d7efc79efa82b7ef8d14fc50aba87646ce8db009fb0e89e3fca221c8dc53cb64710a08aa7eb310e05ac5af32",
        "l10n\/nb_NO.json": "49b62f511d63b9f6f7ef6ee87f83709987153391cb01f8fd391380ea68625284dc8ec175e92857feb088ca49d1b93febfb63d084e5f5377beb50c419a7979fb6",
        "l10n\/nds.js": "deecd67f240f7692af1b02a960f7aad0216a094e3042b8a4f005d05aae34097583c3ffc9c8cea4aeb88efbf1b6316c8c27f78e0eee8345db1616a25eb79470b8",
        "l10n\/nds.json": "5e3855b4b765e6c808398fb2641124cabb831603e19ef020cf54f80a4d5eb2d9537a81d7ac43be0e5131b2c9610414ec0346dd5c884542ac6357c96bab61cb9b",
        "l10n\/nl.js": "73c54aa83bda1560d113bfd85e1e6c1558429d35d91f4552fde9eb857ec1291aa63676dabcb964932e608369caf52e76d9559d5aaca17a4e399a5bad023c5b5b",
        "l10n\/nl.json": "5ef46c66c599d75bed4e1c77e27930070d2577c8b5cfe84550bde05c51ccf31d36bfab5599ee2000f94e4244b7a48ae1d6add8b3a764dcc68f7d5b28f4b53ac7",
        "l10n\/nn_NO.js": "b4e89988332ebbaa8791c9251b89800454c300a68eedc6e449ad89996fe29109769b6c4dfc88d663d1ca8ccb54ad23c82ae81f6347b1a181bbe0e024746300b4",
        "l10n\/nn_NO.json": "2a7159d0d81e58a4a6bb7a512f08502a12b8c48e1d5ab335e8924e3d53900a1894cb5167cf959c7a7238f46134dcb4ea4f45ab8ac3cb4e54450d0bb61bc358fc",
        "l10n\/oc.js": "d257fd471daafdc248887470e89f25dd5d8a43f65217cc4f9c3925da873e0aaf851f94e7e5338e637ec657e5870c13d02fe57ec0357a03ce8015890ce03d10db",
        "l10n\/oc.json": "3459690379b3a8ffd75448a8c19a1e003ad79e037facac2d10cf13cf13b2c328a5c99e78b3294df15d009edbc62df7913b25344c3b5ffd8af33c07620b77a51b",
        "l10n\/pa.js": "43f695c68ff5b99da79ef13e60141e6e2ae3eb083e0ff3ff16b4d263768fd876fc9cdbc17cdb5bd13d056c6eed284f2a6dbee7b583d2717da6d16eabbda91b07",
        "l10n\/pa.json": "ebae9938cdc6733fb7f519d50cf66e21053967f5631d9c67da9ee257c9781d91a3274d561b734b07ea63a0dd986563efc860720f67cb72bc4f838f99ec9a598b",
        "l10n\/pl.js": "d2e5bcad8af193ca68d7b0644f8a047d9279a36d8fe10489d0e238a42d25e5d2825f712f81471c2334bb6677a9d0dfdc65664f2037c3fc5df8897362ad7cc1ed",
        "l10n\/pl.json": "d7acb86e069c48fa7ed6a4e83a8eb0e784024afcd1eb91d68a0d8826fdbb8ae66da5fe883620d2fe18c5dd08a9f5b24281de763f09cfccc9395d2217401f4204",
        "l10n\/ps.js": "924f04520cde2939717e8b63793f7a8e0f2621c77e4e678c48f8ec35695a68c27b01a179e5559658583c2273e7d687bf157cd737342d7a7093c5f592282d96a9",
        "l10n\/ps.json": "e604e0dfe020a54230dafbbf4aaa34b5cf5a70fe379cda6b44c37d3454dcf193c5f06e11dc49d176a522b7c417a6d0b41819c1cd69b0c6519e2c191bfda31a5c",
        "l10n\/pt_BR.js": "671057b977772b21c463948783fe231aa76ad23d671fc6086029f9d81c617ffcb0bddf862a85cf30d6daaf99dbe18ac9488d9fb97c31871400753cb06d34e95f",
        "l10n\/pt_BR.json": "f9e2db20c4d97b6f87a174cf6697d8e9030418f8288e7a65f3efdfc21ed924d86e1a09b57555e8303d331cc4414b3c3d131da298cfa8ca408a2704cdefc10f80",
        "l10n\/pt_PT.js": "941aa322d485fe37c42230242a38a702e16b80cb2c5e70446c967424c6227af9042e3bcd6f29e264508f77903d360e3030b894f825483bf7249242b1e64d283a",
        "l10n\/pt_PT.json": "138940a60d8ce5f5580219d229c27fc25050f1413efe15facccbeae4620cd0df9d8537b417f50974466d607478943bfee18bb528c64d47be8aacbb1ff5199713",
        "l10n\/ro.js": "d1a5f27f0dc703ceee12a1dca4a2f0b29f407fb977898eb5013127358ed9a4dae4b3f20605c19c169fd442ec3276a022cf898d3cbf7b3294af21049ed1ed4711",
        "l10n\/ro.json": "def5ae138c837057b555b678fe6a9cf9fd9f842e4c85d517c293725036eb9bbd79fcc2151de116112aec17b635ce28fe65a808725e0195360f4f596b9d8a44c6",
        "l10n\/ru.js": "f59a0438fa88612049a6381af83213d1354b1164a4fa8c123ee98fdcb63db2d79dbcb33a528c807defe3ec9ac353aafc54d01669f8d9504e4ecf366be0908647",
        "l10n\/ru.json": "6d59ad25ba8f8bda9111d104a6c95c48f179a6ee2bc9cd5a1d16ddfc2ee53741160de81ac9f0a5b17b74170366880296b77d3950df686be62652113a8863e04a",
        "l10n\/si_LK.js": "af26aa9f1bb139e7b3ad88a11141a7dae01b32acbd96779b75b1925fbbce6b8ecc1f3924907d619b1d6bc5f881386b72b02cfe6118e164f2c68d17ce4110f9e0",
        "l10n\/si_LK.json": "1494eabf1d6f95fcb3525e7c896ef428c657e4951faa82244fbcb134ccf3dd822aa25b11a27d567c20a7611f9d8d060b4e9efe8270fc3558163ab3358a356c11",
        "l10n\/sk.js": "a3f5eaf46b5bdee952619f6dea2bd91efc31700c59125e67cef74e20db7acb92b9c0a483719462091c78fc735fb1b3d150d1a8b8eb3ad1a5c61657164bbb9e80",
        "l10n\/sk.json": "02b0b1f59f7c91f9dbbe0b8fd17653fd6cab90661a74ca953706690e95c6f2e2e4e251437c812bacdaa495b263d8d53c12c15bc833579ae153f8cb8b925479c4",
        "l10n\/sk_SK.js": "757c2b61f5ca95effb9489c64ed32ec3a1fc5e4852460279e770c1d6ea25ec512d22b7815abc06a72654b920abb350cd64d01e977d780dbd2ac1711e08f71994",
        "l10n\/sk_SK.json": "c1bcbb9db3b6a57c72a3aeca83692370621e03b6a8254b6344b50828133b56488ff89a220bf39e0b63828e88f1a105465bffef39d22d5910a9b462ff815787ec",
        "l10n\/sl.js": "73e1ccc6bc37d17f662ec83725eb23ea0bafd8ef6a8dddb6859c4745c915e38820b3c8c0252488685e43e08ca3a66e234b0b820e19c88f3fb318fb2605fda341",
        "l10n\/sl.json": "640fde644ca47f893d92014d73569bb3560508f75b6dffffff6e72c9e5db24efe42cf5cb2af7bbb989fd9f6b5c1f44fb2c27058ef8a4d1e8343f647074f9600d",
        "l10n\/sq.js": "60bb80723db8b62d9f61c2e42607e3448a4e840bf0e8000367bec99ae42538c39f2302e7ed3773168a38807b14f0540f4c50702ca2b862ac257073bb90eb9043",
        "l10n\/sq.json": "7786f10b5d85727b8ac410e4082ee684de1781217fcc926a3b071059e9496691e2e5e8621234ab553a88163240e9fda937cf0fb4d82b5ed1f68abaf1f4f3051a",
        "l10n\/sr.js": "91645feb3ee09b24b54de4f6f8711fa3845715a3d994c4a5469a7d53da42eea342c2e01418a127b658e05e4f14f9b68738b69fca7803e152d976d10997250fdd",
        "l10n\/sr.json": "494eee52a6473874518d1e310f8787d40f8b41aba4f97e574f41b0904d0ca6294b447c6eed78e5dbd2c8b861ab5371eba30bb6439b189e8cf2242a5cea062cc7",
        "l10n\/sr@latin.js": "a0faed286b0faa6c0ed610ade877f6538a969a04b52285ddf401a9fff37a0aea70be9bb2153da93f99c4163a59fd3f8c60483c3bd0ef25aa56ef5ae6b376ecb7",
        "l10n\/sr@latin.json": "6d2f9409741a487abc84d396c96f13d950fa9cabc99150f790a3c708df6fc6053952fd12f56c33ef1d2ec4e4918941cae1cffa1600048f67416b4f4a86afb7e7",
        "l10n\/sv.js": "1e2b1a97d5428a76764dd2a298ebccc88c09c6aed04371fcd0e1bda2b0fbc6eec947d9f197008181785a8c0a400cf7b9a59d0b5fee386c0725447a00c5be6950",
        "l10n\/sv.json": "c59dfcba4090be594f6dd666cfe4a498002a1821019dbccbb7e71115da177d5e006754ceb3c5dbb896d076bec9acbf53e333ffe9e493f6f8a9e1f9b151b384af",
        "l10n\/ta_LK.js": "dd6cf0c7c50fe7c34470925049ad4c83adfdd0342cc4c42eb9cb2320d8ea43e930cd75ebc23be6b54a4edec971d96ad8cae73205fbde949f1c397bb3c19f6f86",
        "l10n\/ta_LK.json": "c32cf0b3306c34fc0c0dcbf57bd90614fab143340e4136414636bb54963e65b7dd3e1a3fe681d74b9453848f8949f9abc559cff45f70b36e763ff736e66ea217",
        "l10n\/te.js": "6d9fd20019a874e23dfc75e0d23e1feedc499edf154fb6f79b106a571a526f224971089416331cf74d0b0d025f7d97400962760b0d9ddb82429a8dbfde1e108a",
        "l10n\/te.json": "cc5db9941cf9aa7c45515931739c8255bbf37ff3342772b3b56f82738cc9e9199b5ffca88a3bf23370898b256a3c78ccc1919a50a78e000f1340b3ed6e1a601a",
        "l10n\/th.js": "94b112edae35a546a84b02356ff03c4fbad66ae9197b44dae7ff4932aabccb8ba1738eff816e41d411e0931bd1fe494abb0a0b2353d2ca1edc31a3dc88454321",
        "l10n\/th.json": "9b9a1ddfab4afbad78b607338fa580d3f654606bf2a40fab4ab435c3dcde87b2a28ce803ebfed0cb257ef9d32aa22596b853282bfba909463471b15b479039b6",
        "l10n\/th_TH.js": "6872422569699e771d73809c894ca03ba5b672443ddfb828797d72b36d183091c9d1a79328f7e93cd7726520dc1c0b855943f5215c0952b5eb2bbcc2337d9377",
        "l10n\/th_TH.json": "322eda813afe9e955bbead9301828a2406fc0623712cedeadee59bebee4cff88a30028611efc70779f407016dea5e65abc215985c472b48a611f0c40ad696cc7",
        "l10n\/tr.js": "4db4d767e5dab4bc6361e7c84fe796a86346bc79a08182d87a495ff080e25edd6cd698597fe8f533a84cbc31b47bafdfb117bc2d7789e1ca8d765d96929bc198",
        "l10n\/tr.json": "65aeb5c0c3714c3f5b919789ffe88084fad773bc4263af60378cf56a1c6ddc87ad09c918f960ee6eb7a2b6ac7fd6a86ee814cca99d53bf2ffc45ca5e680dc169",
        "l10n\/ug.js": "2216702a9a8f3eba5dd14af04bd19fb3f84aa011c0ddee5dc18a7de2f5361a2d61407f96c9c4a2a95a198e4291b8e834f256ed82c30d4b965934edba442c0591",
        "l10n\/ug.json": "2ce953bbdcea83424603f6d12cff2cf9d66ce5ff3468c5e167be265e8befeb740a7235b51a07a311d101f4a475956b18fa02471cc5f9d42abb9c8802eb6939b0",
        "l10n\/uk.js": "05f9f27ab27508a5fde4e0300111c35e85c7f1f68cc715ad06085434ff3e764ff76358d75fdc04879df4f6139f2b796eef3750cd2122c53ea703306e64a99e7c",
        "l10n\/uk.json": "6408aa0f4caf83b315631857d09ec28036c6049d150739471ece2c4bf2c90ee1232cddebfc3e19b8ea6292f329367bc7e0c21ef54a25dd53d728d0fa2575814b",
        "l10n\/ur_PK.js": "713f7a94cf2ee0d6f9f24cbed0a129ecdc38df1da736dfb9657edac5cfd47106c12cfb26c518949559755a37403d8f45bd935b9ea40575d6285975d1b7d46cdc",
        "l10n\/ur_PK.json": "9f72b3426b12a3b8f6e7ba3cbf36c1f677382af2b1cc0fa1cccf2eb55689758e9f7fd7b2c3837163fb76c084287423263f8e5df0e027b1dcdba3d6294fac134f",
        "l10n\/vi.js": "f7e29d74e2abca75d729eff9e650b8e23693677438a043de1d330b1f60f167eabe023d889a1bdae75ded3606d71fa9faa32962f6c67a9c28af66c2f035785e29",
        "l10n\/vi.json": "e0e4ccd86316febe3d606163662551ec0e25b532f1c46fa5652dac32297692f83f83581af475537a33b259c1fe4a1e8963ee621fc07e6702c66097aeb12f21a5",
        "l10n\/zh_CN.js": "c340ad926e70116d40ebf06be23c444b8ea26118e532923ed64a53c4ebe74a6f1237f6456569d22b382f55e6b71ab2ad0aea96302b0a06dc4622034378fafd26",
        "l10n\/zh_CN.json": "3c2455b7eecb008685e6dcf81274fd84db8f49f5d14413ba56f0fe303fbb23ad8bc521b3be0edd33871d1da369b71747afea9075818859a3b3a8aed78bb80582",
        "l10n\/zh_HK.js": "700a1870b0dc43974fcc3f0c033ce83713586981d36b611f12d5ca6f0df4eaea93a2db7c0cc0cf6ce0c43dc66f454b2887ee3dd6b48b60f26b6b919e49f160ea",
        "l10n\/zh_HK.json": "ea27dc0e58eb9889517cdcbdb705ff14be127f7a194390e55b723a58670f7e03cb440688491d4b0eefc024b1292fcc0e170f757ac8336d7a874db355ec17f158",
        "l10n\/zh_TW.js": "64ded8f7ab6c203f8cf26167c554b6a5450403d6ed4052abaeff9750c630b59e6925fa962ce3bba4cb9512dd2e3bb804db058477c55c56fc0f1bc8838329fc69",
        "l10n\/zh_TW.json": "b0ca56a5602dbda905ab3937022be951497ce3064e153c486b99544b409df736aae293a58e0103757a17f8fbe27ebdcfea1269f767035bcd9110466fca476e14",
        "lib\/Activity\/Filter.php": "dc161175185227054be94e152cd9acf3704c578c6cd06e6f89a9899cec222a048a2b874edcca4716ab443dd5dbea14bb9faed111ed7d0540df5118ef11a4d048",
        "lib\/Activity\/Listener.php": "7f84e082562a9f1c7a9936cd3f7d1b6da407d588d3bf1c6ecd81e9cf1cd0624188a58a646db944dc546297ca54954a0dadc60d0139f71793a8143f834da88746",
        "lib\/Activity\/Provider.php": "4472dc0ae721a8a1a87c2b772d2661c0e84cb9736cc720ae9744526ea85ceb2f2539bc83d584dce354dd9de68920517a6a6ef35f2b31d1e069e3449628c3645f",
        "lib\/Activity\/Setting.php": "1d403eb1ddb66d5fd07e1e980163ef87d3519217e54d498e49d27839e80f8a1ff5b4d6ae100bfb3ac1ab15dff9cd4bb87fb2be0903840c475a3de1270ec19f32",
        "lib\/AppInfo\/Application.php": "04d49de5d594492fe6687877433f55b5b005da93c9d6913538d2d672f83a06757531073457d8b5db830ecd860fe2db9bad619131c7ee90ff88b0e5bb90b7bd5a",
        "lib\/Collaboration\/CommentersSorter.php": "a5143e2b015d5bb50d5f696341ada62c15044b11a8d1d5109708cd4d1e51d8b5b9738ef27be208a17fc18f48ffa2ea758973540616db70ee11e9a9f48bcdd34c",
        "lib\/Controller\/Notifications.php": "d540c0aba3a1eba300734afde6fea1c90b3c9af64bdabe12f8760b0e565ff9af86b86109289d2bf3a253353dd388b8d4c6d8cffa4ef2011f5cadb24cac033fc9",
        "lib\/EventHandler.php": "8ac5c2f9162573d24263716533997dbfdcbfebe1b630cc704d284abdbb525f30c51d9d23e6fd59bb725235f7fa42e6cd2c0d597ee4c200c7a26eb433431a2958",
        "lib\/JSSettingsHelper.php": "6369ff9b5ca3e5049684f995c30ba11ba6aa26f6eec14c0d65ee4262e553eee83acbe16229540fc83a2a47dd4871baadf92104628e7c778f284f904764ba9bcb",
        "lib\/Notification\/Listener.php": "258b0cb75307ad12868db5e48167c5cd96255e86c9fb45c477af9d9e6500dded3986ed72b12840b49ce1e06ca4071657d596e43f3e23f9ea4cb020fd68575c3c",
        "lib\/Notification\/Notifier.php": "ff7574a16d7847ac97880a8ff13edb06082feab5e785a4673af016cd8db2340e4f302aeeb26ed76a7fe081142898fe52f430b0c3cab1d5ecb260ed8ef9a79e7e",
        "lib\/Search\/Provider.php": "a08cf35798a34bf5a45d5a99d6a6182b0af99524c18261e989cdea0dadb0f1566b9240a3ef95ea5f63b31a4dadb866dc02b9207889f3bea2e6192ee522dd175b",
        "lib\/Search\/Result.php": "6d171bf8d439d9de054bed9b5e6e5019bfaec969cf6ae30106b8cd53683b1725c99e8517b3c5172a3964abe4b31ff4d92c530d486df13d9afd37a2fe6ce5ebb1"
    },
    "signature": "Gy2slaveoZoCZekOTSuWJT4K\/9\/QIUu9U1Lp1p\/56ldIhWhF4YFgMXAVxtHp17ezUmRTFeCEW6KMfXGsblLMe2wPZhjI2Dv3y2+GA5hEV+vOiDZxJnsW41XF+kPSTBn3vyqTMCuv9gJ6VQAWAM\/0eFRDHxs\/pouA6bcfAGOV8YG8wf5+lD3nXqRhpgGZorj5IpuPVqAO2X0Luco0laHTecZGSEoSzrbAU69h6BqIlS2Drvf8SF2tR8pGffOUNWZ8I9Fnc8bymxe78tg3voDV+rsMRMLGCF+eNKIae0WbCt9Xmlxk\/euGIehAMUKP\/hcgr4lfSfUl25tD3pL5et77Wg==",
    "certificate": "-----BEGIN CERTIFICATE-----\r\nMIIEojCCA4qgAwIBAgICEAAwDQYJKoZIhvcNAQELBQAwezELMAkGA1UEBhMCREUx\r\nGzAZBgNVBAgMEkJhZGVuLVd1ZXJ0dGVtYmVyZzEXMBUGA1UECgwOTmV4dGNsb3Vk\r\nIEdtYkgxNjA0BgNVBAMMLU5leHRjbG91ZCBDb2RlIFNpZ25pbmcgSW50ZXJtZWRp\r\nYXRlIEF1dGhvcml0eTAeFw0xNjA2MTIyMTA1MDZaFw00MTA2MDYyMTA1MDZaMGYx\r\nCzAJBgNVBAYTAkRFMRswGQYDVQQIDBJCYWRlbi1XdWVydHRlbWJlcmcxEjAQBgNV\r\nBAcMCVN0dXR0Z2FydDEXMBUGA1UECgwOTmV4dGNsb3VkIEdtYkgxDTALBgNVBAMM\r\nBGNvcmUwggEiMA0GCSqGSIb3DQEBAQUAA4IBDwAwggEKAoIBAQDUxcrn2DC892IX\r\n8+dJjZVh9YeHF65n2ha886oeAizOuHBdWBfzqt+GoUYTOjqZF93HZMcwy0P+xyCf\r\nQqak5Ke9dybN06RXUuGP45k9UYBp03qzlUzCDalrkj+Jd30LqcSC1sjRTsfuhc+u\r\nvH1IBuBnf7SMUJUcoEffbmmpAPlEcLHxlUGlGnz0q1e8UFzjbEFj3JucMO4ys35F\r\nqZS4dhvCngQhRW3DaMlQLXEUL9k3kFV+BzlkPzVZEtSmk4HJujFCnZj1vMcjQBg\/\r\nBqq1HCmUB6tulnGcxUzt\/Z\/oSIgnuGyENeke077W3EyryINL7EIyD4Xp7sxLizTM\r\nFCFCjjH1AgMBAAGjggFDMIIBPzAJBgNVHRMEAjAAMBEGCWCGSAGG+EIBAQQEAwIG\r\nQDAzBglghkgBhvhCAQ0EJhYkT3BlblNTTCBHZW5lcmF0ZWQgU2VydmVyIENlcnRp\r\nZmljYXRlMB0GA1UdDgQWBBQwc1H9AL8pRlW2e5SLCfPPqtqc0DCBpQYDVR0jBIGd\r\nMIGagBRt6m6qqTcsPIktFz79Ru7DnnjtdKF+pHwwejELMAkGA1UEBhMCREUxGzAZ\r\nBgNVBAgMEkJhZGVuLVd1ZXJ0dGVtYmVyZzESMBAGA1UEBwwJU3R1dHRnYXJ0MRcw\r\nFQYDVQQKDA5OZXh0Y2xvdWQgR21iSDEhMB8GA1UEAwwYTmV4dGNsb3VkIFJvb3Qg\r\nQXV0aG9yaXR5ggIQADAOBgNVHQ8BAf8EBAMCBaAwEwYDVR0lBAwwCgYIKwYBBQUH\r\nAwEwDQYJKoZIhvcNAQELBQADggEBADZ6+HV\/+0NEH3nahTBFxO6nKyR\/VWigACH0\r\nnaV0ecTcoQwDjKDNNFr+4S1WlHdwITlnNabC7v9rZ\/6QvbkrOTuO9fOR6azp1EwW\r\n2pixWqj0Sb9\/dSIVRpSq+jpBE6JAiX44dSR7zoBxRB8DgVO2Afy0s80xEpr5JAzb\r\nNYuPS7M5UHdAv2dr16fDcDIvn+vk92KpNh1NTeZFjBbRVQ9DXrgkRGW34TK8uSLI\r\nYG6jnfJ6eJgTaO431ywWPXNg1mUMaT\/+QBOgB299QVCKQU+lcZWptQt+RdsJUm46\r\nNY\/nARy4Oi4uOe88SuWITj9KhrFmEvrUlgM8FvoXA1ldrR7KiEg=\r\n-----END CERTIFICATE-----"
}