{
    "hashes": {
        "appinfo\/app.php": "fc79a8d3d97c9d9b76539ab64fd6b129856cb7d741b67f12ecc3752ed266ed06e2934f63a6384a604959215fe3763d2caeb9b9ca0bf2408ffa2871717b0bc8f2",
        "appinfo\/info.xml": "30192ee39df22686e37e18050c2e19940ffd1afae00e4e10ae8a702ff2d983f6b9807db46e5da64465463f1ce9149895cffb4a89380df9c9adcbf5fb1b3cfbdd",
        "composer\/autoload.php": "0e302c5d04f451277c9453f93a8bda0e3fb3e59f0fd654b3636260fdd55ca5c7152bc6f11acac278b5a8c16a17e21306fee666909d7cd27fe1397978b08a8e51",
        "composer\/composer.json": "16844b716bb9c120ada37ea89d23bbba40d6b661edf8365d3998b5f120609f522e53b4d0aad334e0329ddd93904273bd71a9581302d47b02a6da9c2a91d39148",
        "composer\/composer\/ClassLoader.php": "6d630ae5c62bd43ae490e02b0e1eab6f9a4b92364b617e0dbb4404ff11bc33db238568dcc3df9d8de616f191109853bf9d9a408030f1252fa7e420e5321227af",
        "composer\/composer\/LICENSE": "f3bb64009f41a425df5a9bbab53490f0eb9b74fa8d6aaa2f57efb928edc4ffff330260666edeaa04a91fed708c3663371cf01b284f3a08d6698aaef7a23f355a",
        "composer\/composer\/autoload_classmap.php": "506a2d5e315c953e7f434ec1ae2007b18446e8577c983d264d0680acd06e61fb73ad430a04efa7892daad814c240b6dd3cb838bcdc9e3c5f3ffefecc34162fe4",
        "composer\/composer\/autoload_namespaces.php": "dd8ee31d2faa9014fe567e1f954b5e7f450cf06feacbb96d4df663c59b1a36a0b7d26ad41b46354bd14f282fa7899298137208d1851099cd3ada285650efd90f",
        "composer\/composer\/autoload_psr4.php": "43b4d5f2f84a1e4636d15d0aaae015f27b2041eb337180296ac5ac04384e410e62230ac722596f3fb37c41da53a0a61dfbe99395802390b7af6876db07e992a1",
        "composer\/composer\/autoload_real.php": "9fbdd149a2c5848bc320860ea1a2fb909cbcc4fcd20cae1a93650fa5aa54a4bb7c7190fd54029b2c500bce41bee0495b72478334c6c4fd461854f29621340cb1",
        "composer\/composer\/autoload_static.php": "e54e5a31d2620c4b89a59520884cc92e869daa731abb974b1ea8bf9f61d9d987d352f972e63ea0be0e6cdec525fd4bd060fb78b6559d2e5e00d1fda5ebc7dbac",
        "css\/settings-admin.css": "6b0d748f7614af7996ee2a81512533e52fdf97b0d2c7184fa093de88288b8d9fbc74361d81606e1f7640f4a533f4a4fa7cef93bfc985e046a513ed99bb6396ec",
        "img\/app.svg": "6be3b26d3518b8d854011dbb2b2d4289d241d2857b619ce93d99df9d122e7233b3e574c8cc22836a9438ddb7ca3d33facb3751e13d5e2782ae069b5744432e5f",
        "js\/settings-admin.js": "0eea0bf72c95fa446fb6652162e8847c542f5c62aa304e735acf0e20648dd050571d0ee03f4224963c6f74ca11d3ec2a4bf827492f30ee3ef6b0c37902434268",
        "l10n\/ast.js": "83fe38dea5f2ef177729d75f3368034e1a3c05f78b6cd1e4dd4d6da547d8e2c6efa7213f6dcd4c478e573370094c5b8573322402df36d272b1bd86eeb0054613",
        "l10n\/ast.json": "a01c5b9cbe73c6af7e3c253a424e8b831640e389187f0ff5a82cf5704b85adc8faa33394ad512e57ca7b0f5ce04f8dedb24fc9c964f30149accf1b5985110336",
        "l10n\/ca.js": "5d47b786a94b6d92ef20d52a2874bd697bdb54ba2e5bd32f0f2d992b18bf1ab6db32d51673dc51306f9aa28df2c33305c9dafecdddd41dfa53019d2b387b9979",
        "l10n\/ca.json": "10532fe10469117cf755fa699695a23963c06ae32b5c01eb45afdcc0935cf97a31094219cad44a3eca813ff7065d91fbac1d6729e519cde34aba29760495f764",
        "l10n\/cs.js": "a590a071eee446458456fbf1866f03376193ec3b8b7a36054d6e5fcbe45fb895e164ad246b3702bc3c6cab8ed57f67ed246dbd03b28a9a10f06bafd5a3109dd4",
        "l10n\/cs.json": "cbdad6903125e8f16971a912b8204711ef4597039521a682c07d27c39b7ea6898298c02c97fb9e56a4e273b251e17dd206288d78e2751d24247f5f7c706ce783",
        "l10n\/cs_CZ.js": "150e553343558f50beb0bfd5252f0446f54aa3cfbc5f28e0f9096ee870047d482e1073882552988839ab4c19d8257a39acd99359fef69de4982af6330dc2046f",
        "l10n\/cs_CZ.json": "abf1b9547278da84099b570d6728a023a1c4527001cee183eeed57fe501edcf4c11b7467f18c8fe912016c5f41ba68e06efb67a83fc396f35ef520fab2a56267",
        "l10n\/da.js": "aae01219abecff78a9491628dacea353057f2a9fdf4d3c67de7edc3910d61d7e39478092532c8bff2c33a8350c5120da59d61f011b9bba90f96cb49af232de83",
        "l10n\/da.json": "77fd5b42e9b7584b913b350a8d3ee3c795a2e0ceeeded0a945616e146ebbf95d66c7bd72b0ac39f7ecc2cb0d9d2f67ec1d77aab90185b5eff0623650e15a6e97",
        "l10n\/de.js": "2118858f5ee42304b072f582bea4d1925bcab77f82e81b394734d1c2aa93744975b274e4db9604b318d48f936dee07e8eb24f822667803edfc655e381b37f5cd",
        "l10n\/de.json": "7a33bce1a7ee453debc9041ea471dc6269cfc463d6c6076e530c5a5753ebe29323cd228711d70df11207a51b175568d63926f928a51c376d4c3752e776c05af1",
        "l10n\/de_DE.js": "83bafbac80734de8d49aa1822afb8a6104c0b6039c127d5413ea884594e6d969cf3f339be2ae0fa56d7cfea754db62d780f7fe86f58334e9c9de339e0cab3b66",
        "l10n\/de_DE.json": "6201c3490c35106d05e4c9b4528f8c12fe3a4cb8a5bbbf167a7e36c0a643cbfbbeada5dfb1483bb37c376a7b0c17956374f8f237ac7c3b937db68373327f3eec",
        "l10n\/el.js": "d9ff97c665d76c6112e34c79cc74c54e84095270d1c67a6a7b3206f9523ffff6d4bebdef82e37cf54e5f7f475138ab78bc18cb04bab3022c7da5fa99f5b42522",
        "l10n\/el.json": "4fc795cf62d9ecd428f4e623fed4cc97d7a0d768fa3c07f6d2d7fcddbdb136eefb8472ccb9c8bedb8b09eb54c9d9668a07383f0a045419d3b6042003d08b646b",
        "l10n\/en_GB.js": "410a7861c1cf8bdcaf1859a884057d28a16f95a9a5a4d60a021b65a3cdb2ceda2930acaad3c3e097612e1d86f10ce7513c409a168eeca2baa2baaf9d05ad3dce",
        "l10n\/en_GB.json": "fde0baf6a9f358b556fecd951edd2d00f36a9ab42589daf75cff8eb3fbf2185f078be5a24b163a2ff2cdd5bd05e9be17aa208c5e348c292f93dc440a4f9a42f8",
        "l10n\/es.js": "a9d39e853ea74521869a6023abe87c6af7a401cb3847b54335078d22797dbb31ea0468f6188b48ef14a982a2e3cc7542ca2ea5e0ea801a1c48eb2f66e54147bd",
        "l10n\/es.json": "31d923df049c47a25b73246f332ea58f4be12f98e54e58a09a3482345aefc37831be320d47e48b73aca221e246bda447cbd50deb64d24ec664b2de22d3d8a30d",
        "l10n\/es_419.js": "57b3979190b92a1df0be89f32c6b15ce4ed03e2a58d90365e21e7b49d4b89a573445399bde6b1ffcc7e860f3689e7149713ecfe533d8d8927676e6a988991ff5",
        "l10n\/es_419.json": "4baf2337faedf4d2147db5a8e0dc3d6d13b44b1de6fdf3d8c9e342a0faf07c19fff3febc8dc641ec2e712e8ac3d633f6a011455df35a29767cfec4772c65f0f9",
        "l10n\/es_AR.js": "efd9ebea233c106eecf37428c20b7370aa5315a00bf9446efe1df1f8520dfef624ed98206e482b5e0821bd22a0273d23c59e1c8401e458d99d12677da0d1c2c9",
        "l10n\/es_AR.json": "d5c72d7e0a56d3454c30189a9d950c553aa1da98c66520fd912e4789338941f7c282368b6b9dbea3e204423beef57205c407cb9454a0cca45fd7ea9d2ed85b78",
        "l10n\/es_CL.js": "57b3979190b92a1df0be89f32c6b15ce4ed03e2a58d90365e21e7b49d4b89a573445399bde6b1ffcc7e860f3689e7149713ecfe533d8d8927676e6a988991ff5",
        "l10n\/es_CL.json": "4baf2337faedf4d2147db5a8e0dc3d6d13b44b1de6fdf3d8c9e342a0faf07c19fff3febc8dc641ec2e712e8ac3d633f6a011455df35a29767cfec4772c65f0f9",
        "l10n\/es_CO.js": "57b3979190b92a1df0be89f32c6b15ce4ed03e2a58d90365e21e7b49d4b89a573445399bde6b1ffcc7e860f3689e7149713ecfe533d8d8927676e6a988991ff5",
        "l10n\/es_CO.json": "4baf2337faedf4d2147db5a8e0dc3d6d13b44b1de6fdf3d8c9e342a0faf07c19fff3febc8dc641ec2e712e8ac3d633f6a011455df35a29767cfec4772c65f0f9",
        "l10n\/es_CR.js": "57b3979190b92a1df0be89f32c6b15ce4ed03e2a58d90365e21e7b49d4b89a573445399bde6b1ffcc7e860f3689e7149713ecfe533d8d8927676e6a988991ff5",
        "l10n\/es_CR.json": "4baf2337faedf4d2147db5a8e0dc3d6d13b44b1de6fdf3d8c9e342a0faf07c19fff3febc8dc641ec2e712e8ac3d633f6a011455df35a29767cfec4772c65f0f9",
        "l10n\/es_DO.js": "57b3979190b92a1df0be89f32c6b15ce4ed03e2a58d90365e21e7b49d4b89a573445399bde6b1ffcc7e860f3689e7149713ecfe533d8d8927676e6a988991ff5",
        "l10n\/es_DO.json": "4baf2337faedf4d2147db5a8e0dc3d6d13b44b1de6fdf3d8c9e342a0faf07c19fff3febc8dc641ec2e712e8ac3d633f6a011455df35a29767cfec4772c65f0f9",
        "l10n\/es_EC.js": "57b3979190b92a1df0be89f32c6b15ce4ed03e2a58d90365e21e7b49d4b89a573445399bde6b1ffcc7e860f3689e7149713ecfe533d8d8927676e6a988991ff5",
        "l10n\/es_EC.json": "4baf2337faedf4d2147db5a8e0dc3d6d13b44b1de6fdf3d8c9e342a0faf07c19fff3febc8dc641ec2e712e8ac3d633f6a011455df35a29767cfec4772c65f0f9",
        "l10n\/es_GT.js": "57b3979190b92a1df0be89f32c6b15ce4ed03e2a58d90365e21e7b49d4b89a573445399bde6b1ffcc7e860f3689e7149713ecfe533d8d8927676e6a988991ff5",
        "l10n\/es_GT.json": "4baf2337faedf4d2147db5a8e0dc3d6d13b44b1de6fdf3d8c9e342a0faf07c19fff3febc8dc641ec2e712e8ac3d633f6a011455df35a29767cfec4772c65f0f9",
        "l10n\/es_HN.js": "57b3979190b92a1df0be89f32c6b15ce4ed03e2a58d90365e21e7b49d4b89a573445399bde6b1ffcc7e860f3689e7149713ecfe533d8d8927676e6a988991ff5",
        "l10n\/es_HN.json": "4baf2337faedf4d2147db5a8e0dc3d6d13b44b1de6fdf3d8c9e342a0faf07c19fff3febc8dc641ec2e712e8ac3d633f6a011455df35a29767cfec4772c65f0f9",
        "l10n\/es_MX.js": "17e67b40754107ec6b8cd33a68ddeaa72b0af8c814d9531a17ebf7bf5f5cbf139567c137c9a5eef44dbdd3f6d5c38d244bbcad404e37d58764d34fc5f41c5037",
        "l10n\/es_MX.json": "670c812a40ad037339a2898e58518fbbefd3de6939020877fcb3e29b2a8736bb6ef8e18bfa7c8de1b9383279b6a88c42ab1c0618cae4c0e6801eba5cf0608d2e",
        "l10n\/es_NI.js": "57b3979190b92a1df0be89f32c6b15ce4ed03e2a58d90365e21e7b49d4b89a573445399bde6b1ffcc7e860f3689e7149713ecfe533d8d8927676e6a988991ff5",
        "l10n\/es_NI.json": "4baf2337faedf4d2147db5a8e0dc3d6d13b44b1de6fdf3d8c9e342a0faf07c19fff3febc8dc641ec2e712e8ac3d633f6a011455df35a29767cfec4772c65f0f9",
        "l10n\/es_PA.js": "57b3979190b92a1df0be89f32c6b15ce4ed03e2a58d90365e21e7b49d4b89a573445399bde6b1ffcc7e860f3689e7149713ecfe533d8d8927676e6a988991ff5",
        "l10n\/es_PA.json": "4baf2337faedf4d2147db5a8e0dc3d6d13b44b1de6fdf3d8c9e342a0faf07c19fff3febc8dc641ec2e712e8ac3d633f6a011455df35a29767cfec4772c65f0f9",
        "l10n\/es_PE.js": "57b3979190b92a1df0be89f32c6b15ce4ed03e2a58d90365e21e7b49d4b89a573445399bde6b1ffcc7e860f3689e7149713ecfe533d8d8927676e6a988991ff5",
        "l10n\/es_PE.json": "4baf2337faedf4d2147db5a8e0dc3d6d13b44b1de6fdf3d8c9e342a0faf07c19fff3febc8dc641ec2e712e8ac3d633f6a011455df35a29767cfec4772c65f0f9",
        "l10n\/es_PR.js": "57b3979190b92a1df0be89f32c6b15ce4ed03e2a58d90365e21e7b49d4b89a573445399bde6b1ffcc7e860f3689e7149713ecfe533d8d8927676e6a988991ff5",
        "l10n\/es_PR.json": "4baf2337faedf4d2147db5a8e0dc3d6d13b44b1de6fdf3d8c9e342a0faf07c19fff3febc8dc641ec2e712e8ac3d633f6a011455df35a29767cfec4772c65f0f9",
        "l10n\/es_PY.js": "57b3979190b92a1df0be89f32c6b15ce4ed03e2a58d90365e21e7b49d4b89a573445399bde6b1ffcc7e860f3689e7149713ecfe533d8d8927676e6a988991ff5",
        "l10n\/es_PY.json": "4baf2337faedf4d2147db5a8e0dc3d6d13b44b1de6fdf3d8c9e342a0faf07c19fff3febc8dc641ec2e712e8ac3d633f6a011455df35a29767cfec4772c65f0f9",
        "l10n\/es_SV.js": "57b3979190b92a1df0be89f32c6b15ce4ed03e2a58d90365e21e7b49d4b89a573445399bde6b1ffcc7e860f3689e7149713ecfe533d8d8927676e6a988991ff5",
        "l10n\/es_SV.json": "4baf2337faedf4d2147db5a8e0dc3d6d13b44b1de6fdf3d8c9e342a0faf07c19fff3febc8dc641ec2e712e8ac3d633f6a011455df35a29767cfec4772c65f0f9",
        "l10n\/es_UY.js": "57b3979190b92a1df0be89f32c6b15ce4ed03e2a58d90365e21e7b49d4b89a573445399bde6b1ffcc7e860f3689e7149713ecfe533d8d8927676e6a988991ff5",
        "l10n\/es_UY.json": "4baf2337faedf4d2147db5a8e0dc3d6d13b44b1de6fdf3d8c9e342a0faf07c19fff3febc8dc641ec2e712e8ac3d633f6a011455df35a29767cfec4772c65f0f9",
        "l10n\/et_EE.js": "b8bc56b803aba86e986e0c4b10f0d524994c33b3f6a05019b62902a846f3f2dc4fa93e013599091ff30ab3638c043a926237b75898e9d3b303bfdc1e85f9426e",
        "l10n\/et_EE.json": "f24f5927e7c4fc559e9f0945fb6a011080660eda5140972e937d3e12ea52386ad89e9737be46a1222ecbd9d8b3bae115eaef0674a94b2db841b4c6b6da2621d4",
        "l10n\/fa.js": "f3985dc12f1bbfecf2866b7ee0bc7282681c3b61dc63d2163586c6ed3cd208bae521e1185d5a413751e8908649ee39ce7dedc32e93a853f1cce9d3697047a9d2",
        "l10n\/fa.json": "ebf5a79c4687ad7cbc73534d79477f08c90076cc73785535c39d15e6d2a3faef832d2ef89dc78fda5cf85ef9662366c0b3d2943e1031b26dc812837d6780e530",
        "l10n\/fi.js": "9ed5f2c923830ad964b14c3f096990bd29b742000c7fc20cd9ebd238a314c8c90e01c3badc9b305ff47f177bb39116b092420d41d6198527b38a88f6f0330681",
        "l10n\/fi.json": "ed2c3efccbc3370be779bf39d09bc56a6104b7ccc2ed60a159fe09ab78afc81efdd8dfb18e9090006528d5ff410528b59db58075a59d2c1a5bb82583cf8d0682",
        "l10n\/fr.js": "fe865ee66f4b01b427cdd244fdd409c5f65517ce439ba9bf19c483d8ee8e86c26739ab6bff2c1a1df169ccdbf67c6044f971a21533b2d1235cf873d221b27b51",
        "l10n\/fr.json": "fb9e2f9249cfd0866331543f36c60fad0b4ac762fa49f9ad7d1305d32b1498cf7baddb6da8d19cc6662f1d37cddd98f69e31f0eeb2349f1344a399ba2f4de8e8",
        "l10n\/gl.js": "63dbb92f1ae512e6eea5c7cca6575775a5a8e869f742398c4908b8fb56f3f908c8417e3deaeb277eb8b9e3898fbed248e9603555ab5a251e37836d489c0d0026",
        "l10n\/gl.json": "87b84c942ddb87bf65bb060b77ddb7b6ba043a24a12582b41df5d4b83de675cfed6a18f40df9a1db456b39115856b0d9ba2898ae06eeae75d141b5601fab2f8e",
        "l10n\/he.js": "ceb03736edb193ad5354591f8b47b60e9847e3cba6128ed0eefa651c1059cbb09dba3a1376f45f726b4b67ea1e8159fcd12360d3c85f6f5eb22bcbdacf2e77c6",
        "l10n\/he.json": "d3167bed5400b150361f37c34ce2017bedcc42cae31b9501faa2d7778180a77b18b0982cf7b04699b1845dea1c636db9f05bb9545438e3bdfab7a0de5b812063",
        "l10n\/hr.js": "16e7e52d49209c31c2ee96e3aeefb54cbf21382db12c94b42eddc4ef435e578658c9b32b9ba1f1738f6a8ec61cd60c7ac652e4cf311cb36dd4028bb9645225dd",
        "l10n\/hr.json": "f6f595c29d231c0e9c98b39a45f74bfa607c73ffee562ded9908ea7d5dcb9a3f7e0afcd8b085959d8b157ef4f43db1170fcf456fa2eb5606767332cd177e0f37",
        "l10n\/hu.js": "ed07db2554c78c9659f974c69f49ee7f329ea18dae9cedfc68d34eac66504296a65078e7244d1e758a9d3699effab104be0ed49b8f8e5639050f39e125ce618a",
        "l10n\/hu.json": "4a587601f99ace4423fbb2f37105070679445ea26c9d273f1f46d5e02142d0f4d880bf6d2fc0147c50c4bfcc5cadb0e742c0ebc5ccf155a34a3dea9dc5bd1b6e",
        "l10n\/ia.js": "17f2bc82731e092f7b48304e9dfc7e90534f2ac06d025f385c52d96c5a0d2aea7de023725b1d15a53abaed65340c4d7e868c8e93b6008c6a4766d4be7f732ca7",
        "l10n\/ia.json": "78dc298088d017bde39fdf8c945eb6a756185d7cd0026fae499c67b365101f393aae3f8460df39aa9ffc4ed770c8c5395de818b4eab3294c4394f490c8d881a1",
        "l10n\/id.js": "7c7327dfd0499b4090b05ea375b51f43428dcc27f266f64b915788a8ae3f964c2a9da06b4338c768c197cc2b9b3bca19b666b0d78bc6c15007641a16b3c3ba47",
        "l10n\/id.json": "3ec09e1d01b67baf1a7b42e0fb7304fac49e018609854356e826a89aabffcdd1d6810bfe115d5e741cb58b47129a4e227eca2fef91715d9c058d81879ca542bd",
        "l10n\/is.js": "e6414cdef9d5dd4a04e7bc853d264b8e0edfe07afb9dc630902f2850511bacf57f37f42b5c2b5c0808d4ac0e93e6f19bf5a314168d7326044278a6cb195c2f54",
        "l10n\/is.json": "26ae6af928c6cded2a158b074b3928141bacaf26909f8f77e6e41b9e193e7fb447eb8d61626837ac3553ce93b01b2b469c21058d2b5b51cdc6473dde5a35af16",
        "l10n\/it.js": "d44cf463a58b038483bbafc4b1cb394a5b0009dad87c5f781561fb86b6ee22d4984cd847836d7a538361fdeaddf0cc0591ecdb216e19fd67080d67f57df79963",
        "l10n\/it.json": "b36b45196af9ac643e948957841b4f5382f7ad90028db8128d7f211d528755f1e184e00e050a882e5a8c88db49c0342b8c4930917c151ed7a823747cc3cbc8e0",
        "l10n\/ja.js": "aaf0f8845242b813b36c3e6dced9822af42ba3387d750bcdf7491f018a85af1297f7fea8d3f7a285de6c403a300533dd50b05b1b77cd6d9fcf0197b89f37cfc4",
        "l10n\/ja.json": "d3e479d7b05dec96280b8648855b5946f141451722ac5fdd5a7edf91d9bbd9e6dd13ad72a72bcb17963572155cf081277ebdd304570f08226d9cb60c560fd0ae",
        "l10n\/ka_GE.js": "c1964568456988aa88433b078f13d2b8bcfdc51414d1c8da97f63e57b9e28aec513a8dc78bc03e72994c3612a9e662a1e2761f952238b59d52a80d836514b85e",
        "l10n\/ka_GE.json": "93ce566bf7ecb5382bb53f3db5fcc260a64aba141ab1b42345b1d3b20d75c6e066829d7afdd72df41415e615914d4b94e29a3f99c8b6079c52783cccd1b1a00f",
        "l10n\/ko.js": "f66f7609f44e93f1ee40911b44e625d13612bb0fa549200b049e4b196951663cd22ed7a164efab444dec08bbf8a0112c238de02a699b0824ff69a05ea4260c18",
        "l10n\/ko.json": "8412450fac5489382ac16ed79b4decf0d47e573fdae28cd8df05db5dce61374e2c28b983d57fa606ee497939ac7832697dd6879dd29da0a4ee1b7f76e8106f77",
        "l10n\/lt_LT.js": "34a432c2bf40f0d073f5a35c79e99a54235f82c8b1a68876361c8c77399d1efac56130408f61fef1cf6508f3d31035a45ae45e45c840f17c2e0c2d6ac699a70a",
        "l10n\/lt_LT.json": "1094285396008cea1f7683c204259292c44206138e5d2f1ed96ecdc35c2ed6713ae36eea73b4729ab10b2075870c46c54b1240383e0d9e64a4561c556e7732d3",
        "l10n\/mk.js": "608ecd57311a4cd72dfb3b9dfaf42edd45a00fbfccecd15682d02d4c9b4efd8c08e80a4c01e508a3b15dde8b7346ce164d6d0bd02f4ac0ed7509a33ba39210a8",
        "l10n\/mk.json": "e14f90b8b09bc4c8a82087675ec000a2c8938fd0d4e733ff977196c809ddee366cbd83f6466f5dcc73f04e6fab4cdb7d72e3adbeec9cd8b7c7b992b178c1677c",
        "l10n\/nb.js": "ad7bab5a87d76d50cc365ba7890487b68fd187d3649c4dfa749a712903b95ec03f74304201907308b15694dd3ed373d900c7ae610115378052bbe55296b4d6db",
        "l10n\/nb.json": "4ba5f7cdc53e60d430fac35b6cb7e9c398db12eb238af7c831f4f6db315743d3ee20310835a367a66ba01e6dcbc67d9df0d1de932d9aa281e8774c4d95ddf94e",
        "l10n\/nb_NO.js": "b74c531f4208133b0c7f14261774d6b1d431f8bf6450bae0b5b807f564d858555225ef7b2964e55e5c5b83c4a9140bd1f44de4a7bf362e5afe629dfbdb66e44f",
        "l10n\/nb_NO.json": "d036b4d587f66eba1480178202fa5317262956d7abc28d6033a31a758e8f346157808d153f740d5c326f8d9f56e209359d40534b9933987174ceaa4e1d3998d3",
        "l10n\/nl.js": "2ff22457ab8fbbc02f661d9def1ce830c5ef06f0ca7c0e069134aef3e55c3dd0d82f1de5b7fdc7088174d90f47753a402899b66deef80f15ad736c2575502aff",
        "l10n\/nl.json": "5a28733dc96613b50845fa085efdef2a02a1978a53f92371053097ef55e37f1e3700b5c6084bc61403eaff41a152275057f79b950e84d8d4b330758cf78f5d4c",
        "l10n\/pl.js": "75ff835ef87a53641704bffd410eafc2f6a8644ceaeba6b2d890d1a8afbc317c11a7332908513f0c35275dfe284494ea0f6d1cc3553e49c7206c71a9b08a0ca5",
        "l10n\/pl.json": "86c87da6f60843eec2cf5030180563b1114a9af28a95427999bd694dcb0fe403358f1786ac735a961b3c6f9021ac5e23995f61b5a35b0db920b601a758321c0e",
        "l10n\/pt_BR.js": "f7f5a40a5de9a2262021373ab10ae158cf12904e69b1e2943ce70b014865ae8b88ac871cc34f564b4222377514662ff68460f3e735d64d7a8d7223ad415c71be",
        "l10n\/pt_BR.json": "7f14d866438eeea1ab441ee846b7c359f5c564274d540bc3d4eb4591becaa47e2e1675e9679ffdf5c34cdf3809920392283708aae5f593a10a37d3730f18547a",
        "l10n\/pt_PT.js": "e1f3dc63267cbd7315c60970f5b5cc5eea54a65033e90d5e1b9568c7e5591796fa90c8f3b1c81ff4771dccf565ab44272e38ff0f2ec08de1947f1ba21758fe76",
        "l10n\/pt_PT.json": "fbd7e5aff3670460295bfa17d0b67818ceca2e69982afc812ba0f39eeffde229b904a85371e10b50f349a5bbdc8f1de91f32543d3fb49f374262301954b04cd4",
        "l10n\/ru.js": "e4a89033516e32d7805cc8b8c9c9a1e451af5cd16da41e70d8396d37fd21202e38170f9826fc4c2c9c370937e419855e7aee552265ecb3a1d463e6b4f95f8d99",
        "l10n\/ru.json": "bcd461a3711990a729c070c0923be7fdaca9c098623ce28adfd5465fb2761244029a42b7928fe3ebd3b850996085a6f5db7dac98d13d59a662736f61399b1337",
        "l10n\/sk.js": "661742c13e8545ac42f3f10307d0f5d19107ecc90a8fedf5561c343caf1a12adc2ec756eb9e1650826e25559195833a3e6f1f66a0851eed121beca52526ac91d",
        "l10n\/sk.json": "706d01dc619b4b474ca09464aaef82a7168e52232c6d2ea62d69a2891edb888efba705965fdef513cf4de12d2eff5864d0832bcb0a1bba1659cb01575d4b415f",
        "l10n\/sk_SK.js": "183617d6e8c5d70e94acac4f041d578db5aed016fca68b9987f394e69adb21de321d59d6f5bd20a4c5f1ac621242d9dde02539a867bb5f18b4249c2340a2a253",
        "l10n\/sk_SK.json": "3217083833407ec8a2fdd312e82a2b5f4729c3097cd304b37327e305ae9e26fe69080a575c12f0e978f1df688b613a8de9a532d2015c94b4bc5482be00876fc6",
        "l10n\/sq.js": "af4a95d1ad79b9e9ce2db39556c33a75cbb69416418b428b5254c77d1d2551f5c3a4d25d18b94960ce99f085d95d02a960f66b7ef55a306322113d3e8ea83318",
        "l10n\/sq.json": "67cb6ee9f19d7a1cfb22d4350b8fab539514722682b5913fc985427edf9b05934a6eab29f2605bac5c42f42b78a789946593c0019066c4a105f3f8950449da0a",
        "l10n\/sr.js": "29f153cd69962f6616ef0bd20acc2ce044cebe1828d85ef99af33b43fb58ef41b270ebfb37cfba2f200cd6ddf3d63388831277d9639f5dc89cf06eb9386d3e4e",
        "l10n\/sr.json": "0d36a4dd4d2536c36fb5bdffd6f11042645afc4d9378e9e35a6eea18e0848ec6dd064690a9dafb420c13fcb097692a5756c0999bd32681b8eec58bcea7d27d8e",
        "l10n\/sv.js": "8ece476501e4999fb150584be2a8d85e8e3234de2cd5da588b6e234e299f28f5ac8acc9bf2413fbbe25cf15b32cb318ee9824d2b1268b4c8cd56c0dd873b4fed",
        "l10n\/sv.json": "4facc172e44127f0ace7475892fa957c7746c2ecff1684047ea73696ab7a2009a8db1c7b7c5b7c1e3ca489c99f5fce5330067d8c6bfa99cb242a6d9f6eeb31bc",
        "l10n\/tr.js": "65c40457d1d1cc1a4c6557c90a1ee1d506755ff9ebd93187df5cce8d6caa5bb9c5a53a968049396cddd56ac70d764fd524fd1f8c23fc4f3f1dc0a75db7d02001",
        "l10n\/tr.json": "b3dcd4fde79610cb1d7ac93ab46e5016cbc51b47daa8259f169d76c8992388ec1dac58e39365942fdcaf960c6662b78184c27daf7896772878c527049b54ab94",
        "l10n\/zh_CN.js": "10d64ea6f04eb96519a3c2032966d9aa8e654f0e78bb4dd391999f48af0d01b16dfdc167343b4c4000cf1c1f8223c2c1b3255a5918aa217ccee7c93be770c5be",
        "l10n\/zh_CN.json": "d77724a0569f7d1d29c00c3520d9c17eb161fcce6486200ee6376afd74869d02aec89338799783d118ea13bed1205f06cab948a911d14ec909576941f26d3cd6",
        "lib\/Activity.php": "c42073fa5573256704bf49d29212422f35b1045d12b5ed153c3a6808d59d66e482bc59a0af3410c22dae3f20b7d86c24ece4c4e43ab396af5b559a6dacf9ae93",
        "lib\/AppInfo\/Application.php": "f68ecd85209b323ecdf8050405741d3d4d3ccc0438abc700c3999ed45d5a54a49a71480b6c82488c7c305270d4b9d137cfceb28b06765fd511a84a5b372555a6",
        "lib\/Capabilities.php": "ce6c15c800b3c660f6c73eddf790c6d08e4ae84dbbe47c76d532767b274021b72a0da41f9e1d5426a25963be94b5134660242e23886057e4b4311ddf68d1aa7e",
        "lib\/Settings.php": "7d93392f640f22ee0291bd88d07176544850eb2429077f9ad048eb8478fb821b0d214439cd229c1aabd0100f5bf435b8d3304197d8dcef571e7b7a720584ffca",
        "lib\/Settings\/Admin.php": "40260a7be45888532fa5fb322b45b83fbe106135f2b2268686c16bec648cbe612679c88918457f74288d1678c46a487a157c2cbd0b6ba25e9ee977654ccc3fab",
        "lib\/Settings\/SettingsManager.php": "85967a31f8b14e020f1006331816fc95dd17d22473ad96a4e6e95b55ed3a541f4c45388a01ae12a4e3622fb391f6fbf2a71aab4a6caedd94c134cfcdc6648ed4",
        "lib\/ShareByMailProvider.php": "ca2aeda231fe93c25024ae52100c3592cb4be5a5e25834b71a35c5795cd8ab9374dbbce05f19d838e79ab2eeaf415351cf2839a6e3cb53e505afa415bddfa8c6",
        "templates\/settings-admin.php": "6dacff0e0cb5e8424c52bde392b9e56abbbcf052a2f8d2b9081c950bb2d434c27dfdbda8f43356a8ea5ab73f74be866061abb5cd6acfa2f318f1425386bdbf60"
    },
    "signature": "OI\/+mqivfCMVIm094aUFRw9jOT40K5tmHkAVEnGOYYUXZMB+Pa4OERGxMUl2g+OPIO1Fdupb+\/B7I4cWyk\/IlWQANuktiN5we4DucOOftImiTNe7SlP8nZqHTVkwSASCIxhilNtZZouvN2vLdDOgWeR2SsAPFTzd4qaRYchA3XyMAhRdP+J2kh9XU\/wN6C9ta\/srF3dnT+\/Yi4M5rje3kYKWki86v8KgrEFiN0Oz7Obbigu7\/KBr3eUicW0+qqWoYMCLmn7g6tWmuVecNO1wcMq5n4GFoASlQpWOsHbiv6IOV4Zu\/Ndk58PHalh9+6BMhQK7Dzizmhn969gJlQ3H2g==",
    "certificate": "-----BEGIN CERTIFICATE-----\r\nMIIEojCCA4qgAwIBAgICEAAwDQYJKoZIhvcNAQELBQAwezELMAkGA1UEBhMCREUx\r\nGzAZBgNVBAgMEkJhZGVuLVd1ZXJ0dGVtYmVyZzEXMBUGA1UECgwOTmV4dGNsb3Vk\r\nIEdtYkgxNjA0BgNVBAMMLU5leHRjbG91ZCBDb2RlIFNpZ25pbmcgSW50ZXJtZWRp\r\nYXRlIEF1dGhvcml0eTAeFw0xNjA2MTIyMTA1MDZaFw00MTA2MDYyMTA1MDZaMGYx\r\nCzAJBgNVBAYTAkRFMRswGQYDVQQIDBJCYWRlbi1XdWVydHRlbWJlcmcxEjAQBgNV\r\nBAcMCVN0dXR0Z2FydDEXMBUGA1UECgwOTmV4dGNsb3VkIEdtYkgxDTALBgNVBAMM\r\nBGNvcmUwggEiMA0GCSqGSIb3DQEBAQUAA4IBDwAwggEKAoIBAQDUxcrn2DC892IX\r\n8+dJjZVh9YeHF65n2ha886oeAizOuHBdWBfzqt+GoUYTOjqZF93HZMcwy0P+xyCf\r\nQqak5Ke9dybN06RXUuGP45k9UYBp03qzlUzCDalrkj+Jd30LqcSC1sjRTsfuhc+u\r\nvH1IBuBnf7SMUJUcoEffbmmpAPlEcLHxlUGlGnz0q1e8UFzjbEFj3JucMO4ys35F\r\nqZS4dhvCngQhRW3DaMlQLXEUL9k3kFV+BzlkPzVZEtSmk4HJujFCnZj1vMcjQBg\/\r\nBqq1HCmUB6tulnGcxUzt\/Z\/oSIgnuGyENeke077W3EyryINL7EIyD4Xp7sxLizTM\r\nFCFCjjH1AgMBAAGjggFDMIIBPzAJBgNVHRMEAjAAMBEGCWCGSAGG+EIBAQQEAwIG\r\nQDAzBglghkgBhvhCAQ0EJhYkT3BlblNTTCBHZW5lcmF0ZWQgU2VydmVyIENlcnRp\r\nZmljYXRlMB0GA1UdDgQWBBQwc1H9AL8pRlW2e5SLCfPPqtqc0DCBpQYDVR0jBIGd\r\nMIGagBRt6m6qqTcsPIktFz79Ru7DnnjtdKF+pHwwejELMAkGA1UEBhMCREUxGzAZ\r\nBgNVBAgMEkJhZGVuLVd1ZXJ0dGVtYmVyZzESMBAGA1UEBwwJU3R1dHRnYXJ0MRcw\r\nFQYDVQQKDA5OZXh0Y2xvdWQgR21iSDEhMB8GA1UEAwwYTmV4dGNsb3VkIFJvb3Qg\r\nQXV0aG9yaXR5ggIQADAOBgNVHQ8BAf8EBAMCBaAwEwYDVR0lBAwwCgYIKwYBBQUH\r\nAwEwDQYJKoZIhvcNAQELBQADggEBADZ6+HV\/+0NEH3nahTBFxO6nKyR\/VWigACH0\r\nnaV0ecTcoQwDjKDNNFr+4S1WlHdwITlnNabC7v9rZ\/6QvbkrOTuO9fOR6azp1EwW\r\n2pixWqj0Sb9\/dSIVRpSq+jpBE6JAiX44dSR7zoBxRB8DgVO2Afy0s80xEpr5JAzb\r\nNYuPS7M5UHdAv2dr16fDcDIvn+vk92KpNh1NTeZFjBbRVQ9DXrgkRGW34TK8uSLI\r\nYG6jnfJ6eJgTaO431ywWPXNg1mUMaT\/+QBOgB299QVCKQU+lcZWptQt+RdsJUm46\r\nNY\/nARy4Oi4uOe88SuWITj9KhrFmEvrUlgM8FvoXA1ldrR7KiEg=\r\n-----END CERTIFICATE-----"
}